{
  "project_info": {
    "project_number": "464022525717",
    "firebase_url": "https://joybees-empresa.firebaseio.com",
    "project_id": "joybees-empresa",
    "storage_bucket": "joybees-empresa.appspot.com"
  },
  "client": [
    {
      "client_info": {
        "mobilesdk_app_id": "1:464022525717:android:d168d51d9d592cd1",
        "android_client_info": {
          "package_name": "com.logiictechnology.joybees.company"
        }
      },
      "oauth_client": [
        {
          "client_id": "464022525717-ik9h69nscu1d6jt2ed9uqu814bq5hqoe.apps.googleusercontent.com",
          "client_type": 3
        }
      ],
      "api_key": [
        {
          "current_key": "AIzaSyBrVX28FDcNIQcxF2PengEAspK55J5TV-M"
        }
      ],
      "services": {
        "analytics_service": {
          "status": 1
        },
        "appinvite_service": {
          "status": 1,
          "other_platform_oauth_client": []
        },
        "ads_service": {
          "status": 2
        }
      }
    }
  ],
  "configuration_version": "1"
}